<?xml version="1.0" encoding="UTF-8" standalone="no"?>
<!-- Created with Inkscape (http://www.inkscape.org/) -->

<svg
   width="210mm"
   height="297mm"
   viewBox="0 0 210 297"
   version="1.1"
   id="svg5"
   sodipodi:docname="info.svg"
   inkscape:version="1.1.1 (3bf5ae0d25, 2021-09-20)"
   xmlns:inkscape="http://www.inkscape.org/namespaces/inkscape"
   xmlns:sodipodi="http://sodipodi.sourceforge.net/DTD/sodipodi-0.dtd"
   xmlns:xlink="http://www.w3.org/1999/xlink"
   xmlns="http://www.w3.org/2000/svg"
   xmlns:svg="http://www.w3.org/2000/svg">
  <sodipodi:namedview
     id="namedview7"
     pagecolor="#ffffff"
     bordercolor="#666666"
     borderopacity="1.0"
     inkscape:pageshadow="2"
     inkscape:pageopacity="0.0"
     inkscape:pagecheckerboard="0"
     inkscape:document-units="mm"
     showgrid="false"
     inkscape:zoom="0.97764852"
     inkscape:cx="266.45568"
     inkscape:cy="213.77826"
     inkscape:window-width="2560"
     inkscape:window-height="1011"
     inkscape:window-x="0"
     inkscape:window-y="0"
     inkscape:window-maximized="1"
     inkscape:current-layer="layer1"
     inkscape:snap-bbox="true"
     inkscape:bbox-paths="true"
     inkscape:bbox-nodes="true"
     inkscape:snap-bbox-edge-midpoints="true"
     inkscape:snap-bbox-midpoints="true"
     inkscape:snap-global="true" />
  <defs
     id="defs2">
    <rect
       x="704.00108"
       y="570.02008"
       width="119.60299"
       height="49.059441"
       id="rect259410" />
    <marker
       style="overflow:visible"
       id="Arrow1Sstart"
       refX="0.0"
       refY="0.0"
       orient="auto"
       inkscape:stockid="Arrow1Sstart"
       inkscape:isstock="true">
      <path
         transform="scale(0.2) translate(6,0)"
         style="fill-rule:evenodd;fill:context-stroke;stroke:context-stroke;stroke-width:1.0pt"
         d="M 0.0,0.0 L 5.0,-5.0 L -12.5,0.0 L 5.0,5.0 L 0.0,0.0 z "
         id="path31209" />
    </marker>
    <marker
       style="overflow:visible"
       id="marker145737"
       refX="0.0"
       refY="0.0"
       orient="auto"
       inkscape:stockid="Arrow1Mstart"
       inkscape:isstock="true">
      <path
         transform="scale(0.4) translate(10,0)"
         style="fill-rule:evenodd;fill:context-stroke;stroke:context-stroke;stroke-width:1.0pt"
         d="M 0.0,0.0 L 5.0,-5.0 L -12.5,0.0 L 5.0,5.0 L 0.0,0.0 z "
         id="path145735" />
    </marker>
    <marker
       style="overflow:visible"
       id="Arrow1Mstart"
       refX="0.0"
       refY="0.0"
       orient="auto"
       inkscape:stockid="Arrow1Mstart"
       inkscape:isstock="true">
      <path
         transform="scale(0.4) translate(10,0)"
         style="fill-rule:evenodd;fill:context-stroke;stroke:context-stroke;stroke-width:1.0pt"
         d="M 0.0,0.0 L 5.0,-5.0 L -12.5,0.0 L 5.0,5.0 L 0.0,0.0 z "
         id="path31203" />
    </marker>
    <rect
       x="191.42112"
       y="436.73231"
       width="216.90678"
       height="151.19186"
       id="rect98962" />
    <rect
       x="214.31366"
       y="603.52882"
       width="88.98504"
       height="112.83851"
       id="rect81209" />
    <rect
       x="125.94394"
       y="532.72755"
       width="148.42094"
       height="71.947987"
       id="rect74002" />
    <rect
       x="187.37562"
       y="552.57748"
       width="151.27177"
       height="63.481402"
       id="rect65922" />
    <marker
       style="overflow:visible;"
       id="Arrow2Mend"
       refX="0.0"
       refY="0.0"
       orient="auto"
       inkscape:stockid="Arrow2Mend"
       inkscape:isstock="true">
      <path
         transform="scale(0.6) rotate(180) translate(0,0)"
         d="M 8.7185878,4.0337352 L -2.2072895,0.016013256 L 8.7185884,-4.0017078 C 6.9730900,-1.6296469 6.9831476,1.6157441 8.7185878,4.0337352 z "
         style="stroke:context-stroke;fill-rule:evenodd;fill:context-stroke;stroke-width:0.62500000;stroke-linejoin:round;"
         id="path31224" />
    </marker>
    <marker
       style="overflow:visible;"
       id="Arrow1Mend"
       refX="0.0"
       refY="0.0"
       orient="auto"
       inkscape:stockid="Arrow1Mend"
       inkscape:isstock="true">
      <path
         transform="scale(0.4) rotate(180) translate(10,0)"
         style="fill-rule:evenodd;fill:context-stroke;stroke:context-stroke;stroke-width:1.0pt;"
         d="M 0.0,0.0 L 5.0,-5.0 L -12.5,0.0 L 5.0,5.0 L 0.0,0.0 z "
         id="path31206" />
    </marker>
    <marker
       style="overflow:visible;"
       id="marker32296"
       refX="0.0"
       refY="0.0"
       orient="auto"
       inkscape:stockid="Arrow2Lend"
       inkscape:isstock="true">
      <path
         transform="scale(1.1) rotate(180) translate(1,0)"
         d="M 8.7185878,4.0337352 L -2.2072895,0.016013256 L 8.7185884,-4.0017078 C 6.9730900,-1.6296469 6.9831476,1.6157441 8.7185878,4.0337352 z "
         style="stroke:context-stroke;fill-rule:evenodd;fill:context-stroke;stroke-width:0.62500000;stroke-linejoin:round;"
         id="path32294" />
    </marker>
    <marker
       style="overflow:visible;"
       id="Arrow2Lend"
       refX="0.0"
       refY="0.0"
       orient="auto"
       inkscape:stockid="Arrow2Lend"
       inkscape:isstock="true">
      <path
         transform="scale(1.1) rotate(180) translate(1,0)"
         d="M 8.7185878,4.0337352 L -2.2072895,0.016013256 L 8.7185884,-4.0017078 C 6.9730900,-1.6296469 6.9831476,1.6157441 8.7185878,4.0337352 z "
         style="stroke:context-stroke;fill-rule:evenodd;fill:context-stroke;stroke-width:0.62500000;stroke-linejoin:round;"
         id="path31218" />
    </marker>
    <marker
       style="overflow:visible;"
       id="Arrow1Lend"
       refX="0.0"
       refY="0.0"
       orient="auto"
       inkscape:stockid="Arrow1Lend"
       inkscape:isstock="true">
      <path
         transform="scale(0.8) rotate(180) translate(12.5,0)"
         style="fill-rule:evenodd;fill:context-stroke;stroke:context-stroke;stroke-width:1.0pt;"
         d="M 0.0,0.0 L 5.0,-5.0 L -12.5,0.0 L 5.0,5.0 L 0.0,0.0 z "
         id="path31200" />
    </marker>
    <marker
       style="overflow:visible"
       id="marker31699"
       refX="0.0"
       refY="0.0"
       orient="auto"
       inkscape:stockid="Arrow1Lstart"
       inkscape:isstock="true">
      <path
         transform="scale(0.8) translate(12.5,0)"
         style="fill-rule:evenodd;fill:context-stroke;stroke:context-stroke;stroke-width:1.0pt"
         d="M 0.0,0.0 L 5.0,-5.0 L -12.5,0.0 L 5.0,5.0 L 0.0,0.0 z "
         id="path31697" />
    </marker>
    <marker
       style="overflow:visible"
       id="Arrow1Lstart"
       refX="0.0"
       refY="0.0"
       orient="auto"
       inkscape:stockid="Arrow1Lstart"
       inkscape:isstock="true">
      <path
         transform="scale(0.8) translate(12.5,0)"
         style="fill-rule:evenodd;fill:context-stroke;stroke:context-stroke;stroke-width:1.0pt"
         d="M 0.0,0.0 L 5.0,-5.0 L -12.5,0.0 L 5.0,5.0 L 0.0,0.0 z "
         id="path31197" />
    </marker>
    <marker
       style="overflow:visible"
       id="Arrow2Mend-6"
       refX="0"
       refY="0"
       orient="auto"
       inkscape:stockid="Arrow2Mend"
       inkscape:isstock="true">
      <path
         transform="scale(-0.6)"
         d="M 8.7185878,4.0337352 -2.2072895,0.01601326 8.7185884,-4.0017078 c -1.7454984,2.3720609 -1.7354408,5.6174519 -6e-7,8.035443 z"
         style="fill:context-stroke;fill-rule:evenodd;stroke:context-stroke;stroke-width:0.625;stroke-linejoin:round"
         id="path31224-7" />
    </marker>
  </defs>
  <g
     inkscape:label="Layer 1"
     inkscape:groupmode="layer"
     id="layer1">
    <text
       xml:space="preserve"
       transform="scale(0.26458333)"
       id="text259408"
       style="fill:black;fill-opacity:1;line-height:1.25;stroke:none;font-family:sans-serif;font-style:normal;font-weight:normal;font-size:40px;white-space:pre;shape-inside:url(#rect259410)" />
    <g
       id="g1041"
       transform="matrix(1.0651807,0,0,1.0651807,-19.181175,-25.499703)">
      <g
         id="g4151"
         transform="matrix(0.10276216,0,0,0.10276216,32.155159,97.566865)">
        <rect
           y="12.663981"
           x="-12.816265"
           height="66.815598"
           width="115.95353"
           id="rect4137"
           style="color:#000000;clip-rule:nonzero;display:inline;overflow:visible;visibility:visible;opacity:1;isolation:auto;mix-blend-mode:normal;color-interpolation:sRGB;color-interpolation-filters:linearRGB;solid-color:#000000;solid-opacity:1;fill:none;fill-opacity:1;fill-rule:nonzero;stroke:#000000;stroke-width:8;stroke-linecap:butt;stroke-linejoin:miter;stroke-miterlimit:4;stroke-dasharray:none;stroke-dashoffset:0;stroke-opacity:1;color-rendering:auto;image-rendering:auto;shape-rendering:auto;text-rendering:auto;enable-background:accumulate" />
        <rect
           style="color:#000000;clip-rule:nonzero;display:inline;overflow:visible;visibility:visible;opacity:1;isolation:auto;mix-blend-mode:normal;color-interpolation:sRGB;color-interpolation-filters:linearRGB;solid-color:#000000;solid-opacity:1;fill:#000000;fill-opacity:1;fill-rule:nonzero;stroke:none;stroke-width:6.90458;stroke-linecap:butt;stroke-linejoin:miter;stroke-miterlimit:4;stroke-dasharray:none;stroke-dashoffset:0;stroke-opacity:1;color-rendering:auto;image-rendering:auto;shape-rendering:auto;text-rendering:auto;enable-background:accumulate"
           id="rect4139"
           width="17.896412"
           height="22.148317"
           x="36.212296"
           y="81.607796" />
        <path
           sodipodi:nodetypes="cc"
           inkscape:connector-curvature="0"
           id="path4141"
           d="M 11.474059,104.66102 H 78.84694"
           style="color:#000000;clip-rule:nonzero;display:inline;overflow:visible;visibility:visible;opacity:1;isolation:auto;mix-blend-mode:normal;color-interpolation:sRGB;color-interpolation-filters:linearRGB;solid-color:#000000;solid-opacity:1;fill:none;fill-opacity:1;fill-rule:nonzero;stroke:#000000;stroke-width:8;stroke-linecap:butt;stroke-linejoin:miter;stroke-miterlimit:4;stroke-dasharray:none;stroke-dashoffset:0;stroke-opacity:1;color-rendering:auto;image-rendering:auto;shape-rendering:auto;text-rendering:auto;enable-background:accumulate" />
      </g>
      <g
         id="g4151-3"
         transform="matrix(0.10276216,0,0,0.10276216,32.155159,129.20726)">
        <rect
           y="12.663981"
           x="-12.816265"
           height="66.815598"
           width="115.95353"
           id="rect4137-5"
           style="color:#000000;clip-rule:nonzero;display:inline;overflow:visible;visibility:visible;opacity:1;isolation:auto;mix-blend-mode:normal;color-interpolation:sRGB;color-interpolation-filters:linearRGB;solid-color:#000000;solid-opacity:1;fill:none;fill-opacity:1;fill-rule:nonzero;stroke:#000000;stroke-width:8;stroke-linecap:butt;stroke-linejoin:miter;stroke-miterlimit:4;stroke-dasharray:none;stroke-dashoffset:0;stroke-opacity:1;color-rendering:auto;image-rendering:auto;shape-rendering:auto;text-rendering:auto;enable-background:accumulate" />
        <rect
           style="color:#000000;clip-rule:nonzero;display:inline;overflow:visible;visibility:visible;opacity:1;isolation:auto;mix-blend-mode:normal;color-interpolation:sRGB;color-interpolation-filters:linearRGB;solid-color:#000000;solid-opacity:1;fill:#000000;fill-opacity:1;fill-rule:nonzero;stroke:none;stroke-width:6.90458;stroke-linecap:butt;stroke-linejoin:miter;stroke-miterlimit:4;stroke-dasharray:none;stroke-dashoffset:0;stroke-opacity:1;color-rendering:auto;image-rendering:auto;shape-rendering:auto;text-rendering:auto;enable-background:accumulate"
           id="rect4139-6"
           width="17.896412"
           height="22.148317"
           x="36.212296"
           y="81.607796" />
        <path
           sodipodi:nodetypes="cc"
           inkscape:connector-curvature="0"
           id="path4141-2"
           d="M 11.474059,104.66102 H 78.84694"
           style="color:#000000;clip-rule:nonzero;display:inline;overflow:visible;visibility:visible;opacity:1;isolation:auto;mix-blend-mode:normal;color-interpolation:sRGB;color-interpolation-filters:linearRGB;solid-color:#000000;solid-opacity:1;fill:none;fill-opacity:1;fill-rule:nonzero;stroke:#000000;stroke-width:8;stroke-linecap:butt;stroke-linejoin:miter;stroke-miterlimit:4;stroke-dasharray:none;stroke-dashoffset:0;stroke-opacity:1;color-rendering:auto;image-rendering:auto;shape-rendering:auto;text-rendering:auto;enable-background:accumulate" />
      </g>
      <path
         style="fill:none;stroke:#000000;stroke-width:0.615273;stroke-linecap:butt;stroke-linejoin:miter;stroke-miterlimit:4;stroke-dasharray:none;stroke-opacity:1;marker-end:url(#Arrow2Mend)"
         d="m 44.793441,102.75721 c 20.543942,11.36089 27.990509,1.91177 43.683155,11.82072"
         id="path31195"
         sodipodi:nodetypes="cc" />
      <path
         style="fill:none;stroke:#000000;stroke-width:0.615273;stroke-linecap:butt;stroke-linejoin:miter;stroke-miterlimit:4;stroke-dasharray:none;stroke-opacity:1;marker-start:url(#marker145737)"
         d="m 46.220512,133.39894 c 27.013773,-0.67542 30.600305,-10.4847 42.977084,-12.05514"
         id="path31195-5"
         sodipodi:nodetypes="cc" />
      <g
         id="g31892"
         transform="matrix(0.26458333,0,0,0.26458333,92.137437,113.98833)">
        <g
           id="g31833">
          <g
             id="g31831"
             transform="translate(-28.272629,-36.220156)">
            <path
               d="M 73.847,30.236 H 25.016 c -1.562,0 -2.836,1.263 -2.836,2.828 v 9.628 c 0,1.565 1.274,2.828 2.836,2.828 h 48.831 c 1.559,0 2.832,-1.263 2.832,-2.828 v -9.628 c 0,-1.565 -1.275,-2.828 -2.832,-2.828 z m -46.56,6.706 c -0.965,0 -1.747,-0.78 -1.747,-1.746 0,-0.963 0.782,-1.745 1.747,-1.745 0.967,0 1.746,0.782 1.746,1.745 0,0.967 -0.779,1.746 -1.746,1.746 z m 41.944,5.034 H 56.895 v -4.097 h 12.337 v 4.097 z"
               id="path31821" />
            <path
               d="M 73.847,47.075 H 25.016 c -1.562,0 -2.836,1.265 -2.836,2.83 v 9.627 c 0,1.563 1.274,2.829 2.836,2.829 h 48.831 c 1.559,0 2.832,-1.266 2.832,-2.829 v -9.627 c 0,-1.565 -1.275,-2.83 -2.832,-2.83 z m -46.56,6.708 c -0.965,0 -1.747,-0.777 -1.747,-1.746 0,-0.962 0.782,-1.748 1.747,-1.748 0.967,0 1.746,0.785 1.746,1.748 0,0.968 -0.779,1.746 -1.746,1.746 z m 41.944,5.033 H 56.895 v -4.098 h 12.337 v 4.098 z"
               id="path31823" />
            <path
               d="M 73.847,63.915 H 25.016 c -1.562,0 -2.836,1.265 -2.836,2.829 v 9.627 c 0,1.564 1.274,2.83 2.836,2.83 h 48.831 c 1.559,0 2.832,-1.266 2.832,-2.83 v -9.627 c 0,-1.564 -1.275,-2.829 -2.832,-2.829 z m -46.56,6.706 c -0.965,0 -1.747,-0.775 -1.747,-1.746 0,-0.964 0.782,-1.744 1.747,-1.744 0.967,0 1.746,0.779 1.746,1.744 0,0.971 -0.779,1.746 -1.746,1.746 z m 41.944,5.033 H 56.895 v -4.098 h 12.337 v 4.098 z"
               id="path31825" />
          </g>
        </g>
        <g
           id="g31835" />
        <g
           id="g31837" />
        <g
           id="g31839" />
        <g
           id="g31841" />
        <g
           id="g31843" />
        <g
           id="g31845" />
        <g
           id="g31847" />
        <g
           id="g31849" />
        <g
           id="g31851" />
        <g
           id="g31853" />
        <g
           id="g31855" />
        <g
           id="g31857" />
        <g
           id="g31859" />
        <g
           id="g31861" />
        <g
           id="g31863" />
      </g>
      <path
         style="fill:none;stroke:#0cca4f;stroke-width:0.714375;stroke-linecap:butt;stroke-linejoin:miter;stroke-miterlimit:4;stroke-dasharray:none;stroke-opacity:1"
         d="m 79.604558,120.65162 2.296414,1.03263 2.069808,-4.53054"
         id="path33876"
         sodipodi:nodetypes="ccc" />
      <text
         xml:space="preserve"
         id="text98960"
         style="font-style:normal;font-weight:normal;font-size:3.88056px;line-height:1.25;font-family:sans-serif;writing-mode:lr-tb;direction:ltr;white-space:pre;fill:#000000;fill-opacity:1;stroke:none"><textPath
           xlink:href="#path31195-5"
           id="textPath121032"
           rotate="0 0 0 0 0 0"
           dy="-1.2"
           dx="4.96">Content is safe</textPath></text>
      <text
         xml:space="preserve"
         id="text98960-6"
         style="font-style:normal;font-weight:normal;font-size:3.88056px;line-height:1.25;font-family:sans-serif;writing-mode:lr-tb;direction:ltr;white-space:pre;fill:#000000;fill-opacity:1;stroke:none"><textPath
           xlink:href="#path31195"
           id="textPath155833"
           dx="4.0100002"
           dy="-1.2">Request: cat.png</textPath></text>
      <path
         style="fill:none;stroke:#000000;stroke-width:0.256033;stroke-linecap:butt;stroke-linejoin:miter;stroke-miterlimit:4;stroke-dasharray:none;stroke-opacity:1"
         d="m 35.861166,131.92099 c 5.435507,0 5.435507,0 5.435507,0"
         id="path301383" />
      <rect
         style="fill:none;fill-opacity:1;stroke:#000000;stroke-width:0.270145;stroke-miterlimit:4;stroke-dasharray:none;stroke-opacity:1"
         id="rect301505"
         width="2.8847084"
         height="2.6402714"
         x="32.282692"
         y="131.92377" />
      <path
         style="fill:none;stroke:#000000;stroke-width:0.256033;stroke-linecap:butt;stroke-linejoin:miter;stroke-miterlimit:4;stroke-dasharray:none;stroke-opacity:1"
         d="m 35.861166,132.57818 c 5.435507,0 5.435507,0 5.435507,0"
         id="path301704" />
      <path
         style="fill:none;stroke:#000000;stroke-width:0.256033;stroke-linecap:butt;stroke-linejoin:miter;stroke-miterlimit:4;stroke-dasharray:none;stroke-opacity:1"
         d="m 35.861166,133.23964 c 5.435507,0 5.435507,0 5.435507,0"
         id="path301706" />
      <path
         style="fill:none;stroke:#000000;stroke-width:0.256033;stroke-linecap:butt;stroke-linejoin:miter;stroke-miterlimit:4;stroke-dasharray:none;stroke-opacity:1"
         d="m 35.861166,133.90109 c 5.435507,0 5.435507,0 5.435507,0"
         id="path301708" />
      <path
         style="fill:none;stroke:#000000;stroke-width:0.256033;stroke-linecap:butt;stroke-linejoin:miter;stroke-miterlimit:4;stroke-dasharray:none;stroke-opacity:1"
         d="m 35.861166,134.56255 c 5.435507,0 5.435507,0 5.435507,0"
         id="path301712" />
      <path
         style="fill:none;stroke:#000000;stroke-width:0.264583;stroke-linecap:butt;stroke-linejoin:miter;stroke-miterlimit:4;stroke-dasharray:none;stroke-opacity:1"
         d="m 32.160272,135.26197 c 9.136401,0 9.136401,0 9.136401,0"
         id="path301714" />
      <path
         style="fill:none;stroke:#000000;stroke-width:0.264583;stroke-linecap:butt;stroke-linejoin:miter;stroke-miterlimit:4;stroke-dasharray:none;stroke-opacity:1"
         d="m 32.160272,135.92343 c 9.136401,0 9.136401,0 9.136401,0"
         id="path301796" />
    </g>
    <g
       id="g1081"
       transform="matrix(1.0651778,0,0,1.0651778,-9.3329701,-25.499417)">
      <g
         id="g200078"
         transform="matrix(0.10276216,0,0,0.10276216,122.26728,97.566865)">
        <rect
           y="12.663981"
           x="-12.816265"
           height="66.815598"
           width="115.95353"
           id="rect200072"
           style="color:#000000;clip-rule:nonzero;display:inline;overflow:visible;visibility:visible;opacity:1;isolation:auto;mix-blend-mode:normal;color-interpolation:sRGB;color-interpolation-filters:linearRGB;solid-color:#000000;solid-opacity:1;fill:none;fill-opacity:1;fill-rule:nonzero;stroke:#000000;stroke-width:8;stroke-linecap:butt;stroke-linejoin:miter;stroke-miterlimit:4;stroke-dasharray:none;stroke-dashoffset:0;stroke-opacity:1;color-rendering:auto;image-rendering:auto;shape-rendering:auto;text-rendering:auto;enable-background:accumulate" />
        <rect
           style="color:#000000;clip-rule:nonzero;display:inline;overflow:visible;visibility:visible;opacity:1;isolation:auto;mix-blend-mode:normal;color-interpolation:sRGB;color-interpolation-filters:linearRGB;solid-color:#000000;solid-opacity:1;fill:#000000;fill-opacity:1;fill-rule:nonzero;stroke:none;stroke-width:6.90458;stroke-linecap:butt;stroke-linejoin:miter;stroke-miterlimit:4;stroke-dasharray:none;stroke-dashoffset:0;stroke-opacity:1;color-rendering:auto;image-rendering:auto;shape-rendering:auto;text-rendering:auto;enable-background:accumulate"
           id="rect200074"
           width="17.896412"
           height="22.148317"
           x="36.212296"
           y="81.607796" />
        <path
           sodipodi:nodetypes="cc"
           inkscape:connector-curvature="0"
           id="path200076"
           d="M 11.474059,104.66102 H 78.84694"
           style="color:#000000;clip-rule:nonzero;display:inline;overflow:visible;visibility:visible;opacity:1;isolation:auto;mix-blend-mode:normal;color-interpolation:sRGB;color-interpolation-filters:linearRGB;solid-color:#000000;solid-opacity:1;fill:none;fill-opacity:1;fill-rule:nonzero;stroke:#000000;stroke-width:8;stroke-linecap:butt;stroke-linejoin:miter;stroke-miterlimit:4;stroke-dasharray:none;stroke-dashoffset:0;stroke-opacity:1;color-rendering:auto;image-rendering:auto;shape-rendering:auto;text-rendering:auto;enable-background:accumulate" />
      </g>
      <g
         id="g200086"
         transform="matrix(0.10276216,0,0,0.10276216,122.26708,129.20737)">
        <rect
           y="12.663981"
           x="-12.816265"
           height="66.815598"
           width="115.95353"
           id="rect200080"
           style="color:#000000;clip-rule:nonzero;display:inline;overflow:visible;visibility:visible;opacity:1;isolation:auto;mix-blend-mode:normal;color-interpolation:sRGB;color-interpolation-filters:linearRGB;solid-color:#000000;solid-opacity:1;fill:none;fill-opacity:1;fill-rule:nonzero;stroke:#000000;stroke-width:8;stroke-linecap:butt;stroke-linejoin:miter;stroke-miterlimit:4;stroke-dasharray:none;stroke-dashoffset:0;stroke-opacity:1;color-rendering:auto;image-rendering:auto;shape-rendering:auto;text-rendering:auto;enable-background:accumulate" />
        <rect
           style="color:#000000;clip-rule:nonzero;display:inline;overflow:visible;visibility:visible;opacity:1;isolation:auto;mix-blend-mode:normal;color-interpolation:sRGB;color-interpolation-filters:linearRGB;solid-color:#000000;solid-opacity:1;fill:#000000;fill-opacity:1;fill-rule:nonzero;stroke:none;stroke-width:6.90458;stroke-linecap:butt;stroke-linejoin:miter;stroke-miterlimit:4;stroke-dasharray:none;stroke-dashoffset:0;stroke-opacity:1;color-rendering:auto;image-rendering:auto;shape-rendering:auto;text-rendering:auto;enable-background:accumulate"
           id="rect200082"
           width="17.896412"
           height="22.148317"
           x="36.212296"
           y="81.607796" />
        <path
           sodipodi:nodetypes="cc"
           inkscape:connector-curvature="0"
           id="path200084"
           d="M 11.474059,104.66102 H 78.84694"
           style="color:#000000;clip-rule:nonzero;display:inline;overflow:visible;visibility:visible;opacity:1;isolation:auto;mix-blend-mode:normal;color-interpolation:sRGB;color-interpolation-filters:linearRGB;solid-color:#000000;solid-opacity:1;fill:none;fill-opacity:1;fill-rule:nonzero;stroke:#000000;stroke-width:8;stroke-linecap:butt;stroke-linejoin:miter;stroke-miterlimit:4;stroke-dasharray:none;stroke-dashoffset:0;stroke-opacity:1;color-rendering:auto;image-rendering:auto;shape-rendering:auto;text-rendering:auto;enable-background:accumulate" />
      </g>
      <path
         style="fill:none;stroke:#000000;stroke-width:0.615273;stroke-linecap:butt;stroke-linejoin:miter;stroke-miterlimit:4;stroke-dasharray:none;stroke-opacity:1;marker-end:url(#Arrow2Mend)"
         d="m 134.90556,102.75721 c 20.54394,11.36089 28.69144,2.11482 44.38409,12.02377"
         id="path200088"
         sodipodi:nodetypes="cc" />
      <path
         style="fill:none;stroke:#000000;stroke-width:0.615273;stroke-linecap:butt;stroke-linejoin:miter;stroke-miterlimit:4;stroke-dasharray:none;stroke-opacity:1;marker-start:url(#marker145737)"
         d="m 135.62152,133.55972 c 27.01378,-0.67542 30.88019,-9.7056 43.25697,-11.27604"
         id="path200090"
         sodipodi:nodetypes="cc" />
      <g
         id="g200132"
         transform="matrix(0.26458333,0,0,0.26458333,182.24956,113.9883)">
        <g
           id="g200100">
          <g
             id="g200098"
             transform="translate(-28.272629,-36.220156)">
            <path
               d="M 73.847,30.236 H 25.016 c -1.562,0 -2.836,1.263 -2.836,2.828 v 9.628 c 0,1.565 1.274,2.828 2.836,2.828 h 48.831 c 1.559,0 2.832,-1.263 2.832,-2.828 v -9.628 c 0,-1.565 -1.275,-2.828 -2.832,-2.828 z m -46.56,6.706 c -0.965,0 -1.747,-0.78 -1.747,-1.746 0,-0.963 0.782,-1.745 1.747,-1.745 0.967,0 1.746,0.782 1.746,1.745 0,0.967 -0.779,1.746 -1.746,1.746 z m 41.944,5.034 H 56.895 v -4.097 h 12.337 v 4.097 z"
               id="path200092" />
            <path
               d="M 73.847,47.075 H 25.016 c -1.562,0 -2.836,1.265 -2.836,2.83 v 9.627 c 0,1.563 1.274,2.829 2.836,2.829 h 48.831 c 1.559,0 2.832,-1.266 2.832,-2.829 v -9.627 c 0,-1.565 -1.275,-2.83 -2.832,-2.83 z m -46.56,6.708 c -0.965,0 -1.747,-0.777 -1.747,-1.746 0,-0.962 0.782,-1.748 1.747,-1.748 0.967,0 1.746,0.785 1.746,1.748 0,0.968 -0.779,1.746 -1.746,1.746 z m 41.944,5.033 H 56.895 v -4.098 h 12.337 v 4.098 z"
               id="path200094" />
            <path
               d="M 73.847,63.915 H 25.016 c -1.562,0 -2.836,1.265 -2.836,2.829 v 9.627 c 0,1.564 1.274,2.83 2.836,2.83 h 48.831 c 1.559,0 2.832,-1.266 2.832,-2.83 v -9.627 c 0,-1.564 -1.275,-2.829 -2.832,-2.829 z m -46.56,6.706 c -0.965,0 -1.747,-0.775 -1.747,-1.746 0,-0.964 0.782,-1.744 1.747,-1.744 0.967,0 1.746,0.779 1.746,1.744 0,0.971 -0.779,1.746 -1.746,1.746 z m 41.944,5.033 H 56.895 v -4.098 h 12.337 v 4.098 z"
               id="path200096" />
          </g>
        </g>
        <g
           id="g200102" />
        <g
           id="g200104" />
        <g
           id="g200106" />
        <g
           id="g200108" />
        <g
           id="g200110" />
        <g
           id="g200112" />
        <g
           id="g200114" />
        <g
           id="g200116" />
        <g
           id="g200118" />
        <g
           id="g200120" />
        <g
           id="g200122" />
        <g
           id="g200124" />
        <g
           id="g200126" />
        <g
           id="g200128" />
        <g
           id="g200130" />
      </g>
      <text
         xml:space="preserve"
         id="text200138"
         style="font-style:normal;font-weight:normal;font-size:3.88056px;line-height:1.25;font-family:sans-serif;writing-mode:lr-tb;direction:ltr;white-space:pre;fill:#000000;fill-opacity:1;stroke:none"><textPath
           xlink:href="#path200090"
           id="textPath7678"
           dy="-1.2"
           dx="5.7199998">Content isn't safe<tspan
   style="font-style:normal;font-variant:normal;font-weight:bold;font-stretch:normal;font-family:sans-serif;-inkscape-font-specification:'sans-serif Bold';fill:#ff0101;fill-opacity:1"
   id="tspan241478">!</tspan></textPath></text>
      <text
         xml:space="preserve"
         id="text200142"
         style="font-style:normal;font-weight:normal;font-size:3.88056px;line-height:1.25;font-family:sans-serif;writing-mode:lr-tb;direction:ltr;white-space:pre;fill:#000000;fill-opacity:1;stroke:none"><textPath
           xlink:href="#path200088"
           id="textPath1000"
           dy="-1.2">Request: unsafe.png</textPath></text>
      <path
         style="fill:none;stroke:#ff0101;stroke-width:0.714375;stroke-linecap:square;stroke-linejoin:bevel;stroke-miterlimit:4;stroke-dasharray:none;stroke-opacity:1"
         d="m 125.20394,132.29212 3.50236,3.49523"
         id="path301831"
         sodipodi:nodetypes="cc" />
      <path
         style="fill:none;stroke:#ff0101;stroke-width:0.714375;stroke-linecap:square;stroke-linejoin:bevel;stroke-miterlimit:4;stroke-dasharray:none;stroke-opacity:1"
         d="m 125.20394,135.78735 3.50236,-3.49523"
         id="path309253"
         sodipodi:nodetypes="cc" />
    </g>
  </g>
</svg>
